…
```r
plant_g_1 <- plant_g_1 %>%
  group_by(DATE, PLANT_ID) %>%
  summarise_all(sum)
plant_g_1
```

```
## # A tibble: 34 x 6
## # Groups:   DATE [34]
##    DATE       PLANT_ID DC_POWER AC_POWER DAILY_YIELD  TOTAL_YIELD
##    <date>     <fct>       <dbl>    <dbl>       <dbl>        <dbl>
##  1 2020-05-15 4135001  5627239.  550831.    5053591. 13396793557.
##  2 2020-05-16 4135001  5806138.  568360.    6699905. 13273365620.
##  3 2020-05-17 4135001  6759595.  660975.    7804065. 14507767213.
##  4 2020-05-18 4135001  4812549.  470970.    5130290. 14520941632.
##  5 2020-05-19 4135001  5437955.  532250.    5896321. 13707398626.
##  6 2020-05-20 4135001  5375586.  525085.    5612536. 11517627080.
##  7 2020-05-21 4135001  6781068.  662742.    6627303.  9446312277.
##  8 2020-05-22 4135001  6420685.  627830.    5555931. 13989682404.
##  9 2020-05-23 4135001  7630217.  745884.    8468993. 13536007825.
## 10 2020-05-24 4135001  7160354.  699818.    8181251. 14617604912.
## # … with 24 more rows
```

```r
plant_g_2 <- plant_g_2 %>%
  group_by(DATE, PLANT_ID) %>%
  summarise_all(sum)
plant_g_2
```

```
## # A tibble: 34 x 6
## # Groups:   DATE [34]
##    DATE       PLANT_ID DC_POWER AC_POWER DAILY_YIELD TOTAL_YIELD
##    <date>     <fct>       <dbl>    <dbl>       <dbl>       <dbl>
##  1 2020-05-15 4136001   666608.  651438.    7997412.     1.35e12
##  2 2020-05-16 4136001   566840.  554253.    7234658.     1.35e12
##  3 2020-05-17 4136001   556237.  544393.    6712265.     1.36e12
##  4 2020-05-18 4136001   530774.  519013.    6259087.     1.36e12
##  5 2020-05-19 4136001   443496.  433555.    5177354.     1.31e12
##  6 2020-05-20 4136001   352374.  344661.    5764847.     1.15e12
##  7 2020-05-21 4136001   494112.  483021.    5674293.     1.26e12
##  8 2020-05-22 4136001   498711.  487412.    5897264.     1.27e12
##  9 2020-05-23 4136001   501823.  490451.    6287109.     1.26e12
## 10 2020-05-24 4136001   479294.  468609.    5635139.     1.24e12
## # … with 24 more rows
```

```r
plant_s_1 <- plant_s_1 %>%
  group_by(DATE,PLANT_ID) %>%
  summarise_all(sum)
plant_s_1
```

```
## # A tibble: 34 x 5
## # Groups:   DATE [34]
##    DATE       PLANT_ID AMBIENT_TEMPERATURE MODULE_TEMPERATURE IRRADIATION
##    <date>     <fct>                  <dbl>              <dbl>       <dbl>
##  1 2020-05-15 4135001                2551.              3030.        19.0
##  2 2020-05-16 4135001                2357.              2804.        18.7
##  3 2020-05-17 4135001                2562.              3143.        22.9
##  4 2020-05-18 4135001                2290.              2670.        15.3
##  5 2020-05-19 4135001                2356.              2764.        18.0
##  6 2020-05-20 4135001                2006.              2347.        18.2
##  7 2020-05-21 4135001                1886.              2529.        23.6
##  8 2020-05-22 4135001                2547.              3118.        22.1
##  9 2020-05-23 4135001                2416.              3132.        26.1
## 10 2020-05-24 4135001                2652.              3262.        24.9
## # … with 24 more rows
```

```r
plant_s_2 <- plant_s_2 %>%
  group_by(DATE, PLANT_ID) %>%
  summarise_all(sum)
plant_s_2
```

```
## # A tibble: 34 x 5
## # Groups:   DATE [34]
##    DATE       PLANT_ID AMBIENT_TEMPERATURE MODULE_TEMPERATURE IRRADIATION
##    <date>     <fct>                  <dbl>              <dbl>       <dbl>
##  1 2020-05-15 4136001                2904.              3378.        28.6
##  2 2020-05-16 4136001                2830.              3374.        23.7
##  3 2020-05-17 4136001                2859.              3324.        21.2
##  4 2020-05-18 4136001                2624.              3035.        21.5
##  5 2020-05-19 4136001                2518.              2860.        20.3
##  6 2020-05-20 4136001                2710.              3202.        26.8
##  7 2020-05-21 4136001                2789.              3339.        27.2
##  8 2020-05-22 4136001                2846.              3528.        28.5
##  9 2020-05-23 4136001                2942.              3543.        28.2
## 10 2020-05-24 4136001                2957.              3563.        27.4
## # … with 24 more rows
```
#### Now lets combine all the data into one dataframe 


```r
plant_generator <- union(plant_g_1,plant_g_2)
plant_sensor <- union(plant_s_1, plant_s_2)
plant_generator
```

```
## # A tibble: 68 x 6
## # Groups:   DATE [34]
##    DATE       PLANT_ID DC_POWER AC_POWER DAILY_YIELD  TOTAL_YIELD
##    <date>     <fct>       <dbl>    <dbl>       <dbl>        <dbl>
##  1 2020-05-15 4135001  5627239.  550831.    5053591. 13396793557.
##  2 2020-05-16 4135001  5806138.  568360.    6699905. 13273365620.
##  3 2020-05-17 4135001  6759595.  660975.    7804065. 14507767213.
##  4 2020-05-18 4135001  4812549.  470970.    5130290. 14520941632.
##  5 2020-05-19 4135001  5437955.  532250.    5896321. 13707398626.
##  6 2020-05-20 4135001  5375586.  525085.    5612536. 11517627080.
##  7 2020-05-21 4135001  6781068.  662742.    6627303.  9446312277.
##  8 2020-05-22 4135001  6420685.  627830.    5555931. 13989682404.
##  9 2020-05-23 4135001  7630217.  745884.    8468993. 13536007825.
## 10 2020-05-24 4135001  7160354.  699818.    8181251. 14617604912.
## # … with 58 more rows
```

```r
plant_sensor
```

```
## # A tibble: 68 x 5
## # Groups:   DATE [34]
##    DATE       PLANT_ID AMBIENT_TEMPERATURE MODULE_TEMPERATURE IRRADIATION
##    <date>     <fct>                  <dbl>              <dbl>       <dbl>
##  1 2020-05-15 4135001                2551.              3030.        19.0
##  2 2020-05-16 4135001                2357.              2804.        18.7
##  3 2020-05-17 4135001                2562.              3143.        22.9
##  4 2020-05-18 4135001                2290.              2670.        15.3
##  5 2020-05-19 4135001                2356.              2764.        18.0
##  6 2020-05-20 4135001                2006.              2347.        18.2
##  7 2020-05-21 4135001                1886.              2529.        23.6
##  8 2020-05-22 4135001                2547.              3118.        22.1
##  9 2020-05-23 4135001                2416.              3132.        26.1
## 10 2020-05-24 4135001                2652.              3262.        24.9
## # … with 58 more rows
```
…
